LoMo Case Challenge - Approach
…
To generalise this analysis to all products, we can can create 2 functions to obtain the slopes for no_order and total price below, so as to compare across different products.

product_order_reviews

# A tibble: 113,322 × 14
   order…¹ order…² produ…³ selle…⁴ shipp…⁵ price freig…⁶ produ…⁷ revie…⁸ revie…⁹
   <chr>     <dbl> <chr>   <chr>   <chr>   <dbl>   <dbl> <fct>   <chr>     <dbl>
 1 000102…       1 424473… 48436d… 19/09/…  58.9    13.3 cool_s… 97ca43…       5
 2 00018f…       1 e5f2d5… dd7ddc… 03/05/… 240.     19.9 pet_sh… 7b07ba…       4
 3 000229…       1 c77735… 5b5103… 18/01/… 199      17.9 furnit… 0c5b33…       5
 4 00024a…       1 7634da… 9d7a1d… 15/08/…  13.0    12.8 perfum… f4028d…       4
 5 00042b…       1 ac6c36… df5603… 13/02/… 200.     18.1 garden… 940144…       5
 6 00048c…       1 ef92de… 6426d2… 23/05/…  21.9    12.7 housew… 5e4e50…       4
 7 00054e…       1 8d4f2b… 7040e8… 14/12/…  19.9    11.8 teleph… 0381de…       4
 8 000576…       1 557d85… 5996cd… 10/07/… 810      70.8 garden… f0733e…       5
 9 0005a1…       1 310ae3… a416b6… 26/03/… 146.     11.6 health… 67b1ab…       1
10 0005f5…       1 4535b0… ba143b… 06/07/…  54.0    11.4 books_… 5c0b7e…       4
# … with 113,312 more rows, 4 more variables: review_comment_title <chr>,
#   review_comment_message <chr>, review_creation_date <chr>,
#   review_answer_timestamp <chr>, and abbreviated variable names ¹​order_id,
#   ²​order_item_id, ³​product_id, ⁴​seller_id, ⁵​shipping_limit_date,
#   ⁶​freight_value, ⁷​product_category_name_english, ⁸​review_id, ⁹​review_score
…
